{
    "current_page": 2,
    "data": [
        {
            "id": 3102,
            "user_id": 138,
            "record_type_id": 5,
            "recordable_id": 47983,
            "recordable_type": "affiliates",
            "action": "[Datos Personales] El usuario rfernandez inició la captura de huellas. Afiliado: AARON PASCUAL ESCALANTE",
            "created_at": "2019-10-29T14:43:40.000000Z",
            "updated_at": "2019-10-29T14:43:40.000000Z",
            "role_id": null
        }
    ],
    "first_page_url": "http://localhost/api/v1/record_affiliate_all?page=1",
    "from": 9,
    "last_page": 3,
    "last_page_url": "http://localhost/api/v1/record_affiliate_all?page=3",
    "next_page_url": "http://localhost/api/v1/record_affiliate_all?page=3",
    "path": "http://localhost/api/v1/record_affiliate_all",
    "per_page": "8",
    "prev_page_url": "http://localhost/api/v1/record_affiliate_all?page=1",
    "to": 16,
    "total": 22
}