{
    "error": false,
    "message": "Listado del seguimiento de un préstamo en mora",
    "data": {
        "loan_tracking_delays_removed": {
            "current_page": 1,
            "data": [],
            "first_page_url": "http://localhost/api/v1/loan_tracking_delay?page=1",
            "from": null,
            "last_page": 1,
            "last_page_url": "http://localhost/api/v1/loan_tracking_delay?page=1",
            "next_page_url": null,
            "path": "http://localhost/api/v1/loan_tracking_delay",
            "per_page": 2,
            "prev_page_url": null,
            "to": null,
            "total": 0
        },
        "loan_tracking_delays": {
            "current_page": 1,
            "data": [
                {
                    "id": 2,
                    "loan_id": 1,
                    "user_id": 2,
                    "loan_tracking_type_id": 2,
                    "tracking_date": "2023-02-03 00:00:00",
                    "description": "otra descripción más",
                    "created_at": "2023-02-24T14:13:27.000000Z",
                    "updated_at": "2023-02-27T13:37:08.000000Z",
                    "deleted_at": null,
                    "is_last_loan_tracking": false
                },
                {
                    "id": 4,
                    "loan_id": 1,
                    "user_id": 1,
                    "loan_tracking_type_id": 1,
                    "tracking_date": "2023-02-02 00:00:00",
                    "description": "otra descripción más",
                    "created_at": "2023-02-24T14:14:39.000000Z",
                    "updated_at": "2023-02-27T13:40:38.000000Z",
                    "deleted_at": null,
                    "is_last_loan_tracking": false
                }
            ],
            "first_page_url": "/?page=1",
            "from": 1,
            "last_page": 4,
            "last_page_url": "/?page=4",
            "next_page_url": "/?page=2",
            "path": "/",
            "per_page": 2,
            "prev_page_url": null,
            "to": 2,
            "total": 7
        }
    }
}